{
  "JavaScripts": {
    "private": {

      "UserController": { "actionList": [
                                            "datatables/jquery.dataTables.min.js",
                                            "datatables/dataTables.bootstrap.min.js",
                                            "jquery-slimscroll/jquery.slimscroll.min.js",
                                            "fastclick/fastclick.js",
                                            "users/users.js"
                                        ],
                         "actionEdit": [
                                             "datatables/jquery.dataTables.min.js",
                                             "datatables/dataTables.bootstrap.min.js",
                                             "jquery-slimscroll/jquery.slimscroll.min.js",
                                             "fastclick/fastclick.js",
                                             "users/users.js"
                                    ]
                    }
      ,
      "IndexController" : {
          "actionView": [

            "carousel/owl.carousel.min.js",
            "counterup/jquery.countup.js",
            "waypoint/waypoint.js",
            "select2/select2.min.js",
            "price-slider/jquery-price-slider.js",
            "elevatezoom/jquery.elevatezoom.js",
            "company/custom.js"

        ]
      }
    },
    "global":{
      "list":[ "XhrController.js","Test.js","LoaderXHR.js","magnific-popup/magnific-popup.js","globalFront/global.js"]
    }
  },
  "Css": {
    "private": {
      "CodeController":{
        "actionView":["code_bubble/style.css","jquery-ui.css"]
      },
      "GameController": { "actionView": [
                                        "game/style.css"
                                        ]
      },
      "UserController": {  "actionList": [

                                      "datatables/dataTables.bootstrap.min.css"


                                      ]
                     }
    },
    "global":{
      "list":[
              "font-awesome/css/font-awesome.min.css",
              "Ionicons/css/ionicons.min.css"]
    }
  }
}